<svg width="285" height="203" viewBox="0 0 285 203" fill="none" xmlns="http://www.w3.org/2000/svg">
<path d="M21.8367 38.1254H121.751V36.0754H167.055V38.1254H267.381C268.269 38.1254 269.148 38.2995 269.968 38.6376C270.788 38.9757 271.533 39.4712 272.16 40.096C272.788 40.7207 273.286 41.4624 273.625 42.2787C273.965 43.0949 274.14 43.9698 274.14 44.8533V181.048C274.14 182.832 273.428 184.543 272.16 185.805C270.893 187.067 269.174 187.776 267.381 187.776H21.8367C20.0443 187.776 18.3252 187.067 17.0578 185.805C15.7903 184.543 15.0783 182.832 15.0783 181.048V44.8533C15.0783 43.9698 15.2531 43.0949 15.5927 42.2787C15.9324 41.4624 16.4302 40.7207 17.0578 40.096C17.6854 39.4712 18.4304 38.9757 19.2504 38.6376C20.0703 38.2995 20.9492 38.1254 21.8367 38.1254Z" fill="#4F4F4F"/>
<path opacity="0.1" d="M26.9835 50.0811H267.923V185.381H26.9835V50.0811Z" fill="black"/>
<path d="M144.815 46.3253C143.45 46.3253 142.344 45.2239 142.344 43.8653C142.344 42.5067 143.45 41.4053 144.815 41.4053C146.18 41.4053 147.286 42.5067 147.286 43.8653C147.286 45.2239 146.18 46.3253 144.815 46.3253Z" fill="#68AEFA"/>
<path d="M8.3136 182.855H31.8277V181.169C31.8277 181.125 31.8364 181.081 31.8533 181.041C31.8702 181 31.8949 180.963 31.9261 180.932C31.9573 180.901 31.9943 180.877 32.0351 180.86C32.0759 180.843 32.1195 180.834 32.1636 180.834H40.2256C40.2697 180.834 40.3134 180.843 40.3542 180.86C40.3949 180.877 40.432 180.901 40.4632 180.932C40.4944 180.963 40.5191 181 40.536 181.041C40.5528 181.081 40.5615 181.125 40.5615 181.169V182.855H45.6003V181.169C45.6003 181.125 45.609 181.081 45.6258 181.041C45.6427 181 45.6675 180.963 45.6987 180.932C45.7299 180.901 45.7669 180.877 45.8076 180.86C45.8484 180.843 45.8921 180.834 45.9362 180.834H53.9982C54.0423 180.834 54.086 180.843 54.1267 180.86C54.1675 180.877 54.2045 180.901 54.2357 180.932C54.2669 180.963 54.2917 181 54.3085 181.041C54.3254 181.081 54.3341 181.125 54.3341 181.169V182.855H59.3728V181.169C59.3728 181.125 59.3815 181.081 59.3984 181.041C59.4153 181 59.44 180.963 59.4712 180.932C59.5024 180.901 59.5394 180.877 59.5802 180.86C59.621 180.843 59.6646 180.834 59.7087 180.834H67.7707C67.8148 180.834 67.8585 180.843 67.8993 180.86C67.94 180.877 67.9771 180.901 68.0083 180.932C68.0395 180.963 68.0642 181 68.0811 181.041C68.098 181.081 68.1066 181.125 68.1066 181.169V182.855H73.1454V181.169C73.1454 181.125 73.1541 181.081 73.1709 181.041C73.1878 181 73.2126 180.963 73.2438 180.932C73.275 180.901 73.312 180.877 73.3528 180.86C73.3935 180.843 73.4372 180.834 73.4813 180.834H81.5433C81.5874 180.834 81.6311 180.843 81.6718 180.86C81.7126 180.877 81.7496 180.901 81.7808 180.932C81.812 180.963 81.8368 181 81.8536 181.041C81.8705 181.081 81.8792 181.125 81.8792 181.169V182.855H86.9179V181.169C86.9179 181.125 86.9266 181.081 86.9435 181.041C86.9604 181 86.9851 180.963 87.0163 180.932C87.0475 180.901 87.0846 180.877 87.1253 180.86C87.1661 180.843 87.2097 180.834 87.2539 180.834H95.3158C95.36 180.834 95.4036 180.843 95.4444 180.86C95.4851 180.877 95.5222 180.901 95.5534 180.932C95.5846 180.963 95.6093 181 95.6262 181.041C95.6431 181.081 95.6517 181.125 95.6517 181.169V182.855H100.69V181.169C100.69 181.125 100.699 181.081 100.716 181.041C100.733 181 100.758 180.963 100.789 180.932C100.82 180.901 100.857 180.877 100.898 180.86C100.939 180.843 100.982 180.834 101.026 180.834H109.088C109.132 180.834 109.176 180.843 109.217 180.86C109.258 180.877 109.295 180.901 109.326 180.932C109.357 180.963 109.382 181 109.399 181.041C109.416 181.081 109.424 181.125 109.424 181.169V182.855H114.463V181.169C114.463 181.125 114.472 181.081 114.489 181.041C114.506 181 114.53 180.963 114.561 180.932C114.593 180.901 114.63 180.877 114.67 180.86C114.711 180.843 114.755 180.834 114.799 180.834H177.951C177.995 180.834 178.039 180.843 178.08 180.86C178.12 180.877 178.158 180.901 178.189 180.932C178.22 180.963 178.245 181 178.262 181.041C178.278 181.081 178.287 181.125 178.287 181.169V182.855H183.326V181.169C183.326 181.125 183.335 181.081 183.351 181.041C183.368 181 183.393 180.963 183.424 180.932C183.455 180.901 183.492 180.877 183.533 180.86C183.574 180.843 183.618 180.834 183.662 180.834H191.724C191.768 180.834 191.812 180.843 191.852 180.86C191.893 180.877 191.93 180.901 191.961 180.932C191.992 180.963 192.017 181 192.034 181.041C192.051 181.081 192.06 181.125 192.06 181.169V182.855H197.098V181.169C197.098 181.125 197.107 181.081 197.124 181.041C197.141 181 197.166 180.963 197.197 180.932C197.228 180.901 197.265 180.877 197.306 180.86C197.346 180.843 197.39 180.834 197.434 180.834H205.496C205.54 180.834 205.584 180.843 205.625 180.86C205.666 180.877 205.703 180.901 205.734 180.932C205.765 180.963 205.79 181 205.807 181.041C205.824 181.081 205.832 181.125 205.832 181.169V182.855H210.871V181.169C210.871 181.125 210.88 181.081 210.896 181.041C210.913 181 210.938 180.963 210.969 180.932C211.001 180.901 211.038 180.877 211.078 180.86C211.119 180.843 211.163 180.834 211.207 180.834H219.269C219.313 180.834 219.357 180.843 219.397 180.86C219.438 180.877 219.475 180.901 219.506 180.932C219.538 180.963 219.562 181 219.579 181.041C219.596 181.081 219.605 181.125 219.605 181.169V182.855H224.643V181.169C224.643 181.125 224.652 181.081 224.669 181.041C224.686 181 224.711 180.963 224.742 180.932C224.773 180.901 224.81 180.877 224.851 180.86C224.892 180.843 224.935 180.834 224.979 180.834H233.041C233.085 180.834 233.129 180.843 233.17 180.86C233.211 180.877 233.248 180.901 233.279 180.932C233.31 180.963 233.335 181 233.352 181.041C233.369 181.081 233.377 181.125 233.377 181.169V182.855H238.416V181.169C238.416 181.125 238.425 181.081 238.442 181.041C238.458 181 238.483 180.963 238.514 180.932C238.546 180.901 238.583 180.877 238.623 180.86C238.664 180.843 238.708 180.834 238.752 180.834H246.814C246.858 180.834 246.902 180.843 246.942 180.86C246.983 180.877 247.02 180.901 247.051 180.932C247.083 180.963 247.107 181 247.124 181.041C247.141 181.081 247.15 181.125 247.15 181.169V182.855H252.189V181.169C252.189 181.125 252.197 181.081 252.214 181.041C252.231 181 252.256 180.963 252.287 180.932C252.318 180.901 252.355 180.877 252.396 180.86C252.437 180.843 252.48 180.834 252.525 180.834H260.586C260.631 180.834 260.674 180.843 260.715 180.86C260.756 180.877 260.793 180.901 260.824 180.932C260.855 180.963 260.88 181 260.897 181.041C260.914 181.081 260.922 181.125 260.922 181.169V182.855H276.375C278.513 182.855 280.563 183.701 282.075 185.206C283.587 186.711 284.437 188.752 284.437 190.881V194.51C284.437 196.638 283.587 198.68 282.075 200.185C280.563 201.69 278.513 202.535 276.375 202.535H8.3136C6.17545 202.535 4.12485 201.69 2.61292 200.185C1.10101 198.68 0.251617 196.638 0.251617 194.51V190.881C0.251617 188.752 1.10101 186.711 2.61292 185.206C4.12485 183.701 6.17545 182.855 8.3136 182.855Z" fill="#4F4F4F"/>
<path d="M95.7962 65.3728H193.341V167.446H95.7962V65.3728Z" fill="#68AEFA"/>
<path d="M187.709 72.2951L191.166 36.3591C191.166 36.3591 198.078 16.8619 187.709 18.3911C177.34 19.9203 183.485 34.8299 183.485 34.8299L177.725 72.2951H187.709Z" fill="#FFB9B9"/>
<path d="M137.401 99.0559C129.766 99.0559 123.576 92.8942 123.576 85.2932C123.576 77.6923 129.766 71.5305 137.401 71.5305C145.037 71.5305 151.227 77.6923 151.227 85.2932C151.227 92.8942 145.037 99.0559 137.401 99.0559Z" fill="#FFB9B9"/>
<path d="M147.386 91.4099C147.386 91.4099 148.155 107.084 151.995 108.231C155.835 109.378 166.588 121.994 161.596 125.817C156.603 129.64 127.801 126.964 127.801 126.964L130.489 107.084C130.489 107.084 136.634 102.879 131.641 95.6152L147.386 91.4099Z" fill="#FFB9B9"/>
<path d="M118.557 168.211H172.859C172.664 164.751 172.172 159.865 171.542 154.494C171.35 152.865 171.147 151.187 170.935 149.494C169.073 134.565 166.588 118.172 166.588 118.172L165.935 116.669L159.292 101.351L159.222 101.378L150.459 104.792L150.148 106.26C150.148 106.26 150.843 108.764 142.92 109.528C134.997 110.293 132.39 105.048 132.39 105.048L115.512 107.617L113.349 110.866L115.512 118.937C115.512 118.937 115.589 122.568 115.669 127.741C115.761 133.686 115.861 141.668 115.853 148.507C115.85 151.776 115.823 154.785 115.757 157.185C115.704 159.208 115.623 160.802 115.512 161.754C115.254 163.921 116.622 166.173 118.557 168.211Z" fill="#4F4F4F"/>
<path d="M158.907 103.261L159.291 100.968L170.044 87.9694L176.189 66.1785L191.166 71.9129L180.413 98.2915L165.052 117.789L158.907 103.261Z" fill="#4F4F4F"/>
<path d="M151.753 87.3549C151.753 87.3549 150.811 80.4335 146.652 79.2506C142.493 78.0678 141.899 72.1536 141.899 72.1536C141.899 72.1536 131.205 83.982 124.67 84.5734C118.135 85.1648 124.076 70.3793 124.076 70.3793C124.076 70.3793 128.134 66.902 131.975 66.1374C135.815 65.3728 142.728 66.1374 145.8 66.1374C148.872 66.1374 152.347 74.9351 152.347 74.9351L151.753 87.3549Z" fill="#2F2E41"/>
<path d="M121.606 112.076L118.141 109.697C118.141 109.697 112.365 106.977 111.21 116.495C110.055 126.013 106.347 160.478 107.117 159.968C107.117 166.05 107.695 167.446 107.695 167.446H120.066L120.451 159.968L120.066 147.088L121.606 112.076Z" fill="#4F4F4F"/>
<path opacity="0.15" d="M120.312 121.803L118.534 143.744L119.302 166.108L120.312 139.539V121.803Z" fill="black"/>
<path d="M136.238 0H229.942V24.467H136.238V0Z" fill="#68AEFA"/>
<path d="M148.143 9.83398H218.037V14.6333H148.143V9.83398Z" fill="white"/>
</svg>
