<svg width="1259" height="531" viewBox="0 0 1259 531" fill="none" xmlns="http://www.w3.org/2000/svg">
<path d="M739.793 99.7271H479.623V94.3647H361.652V99.7271H100.41C98.099 99.727 95.8105 100.182 93.6754 101.067C91.5402 101.951 89.6002 103.247 87.966 104.882C86.3318 106.516 85.0355 108.456 84.1511 110.591C83.2667 112.726 82.8115 115.014 82.8115 117.326V473.578C82.8115 478.245 84.6657 482.721 87.966 486.022C91.2664 489.322 95.7426 491.176 100.41 491.176H739.793C744.46 491.176 748.936 489.322 752.237 486.022C755.537 482.721 757.391 478.245 757.391 473.578V117.326C757.391 115.014 756.936 112.726 756.052 110.591C755.167 108.456 753.871 106.516 752.237 104.882C750.603 103.247 748.663 101.951 746.527 101.067C744.392 100.182 742.104 99.727 739.793 99.7271Z" fill="#3F3D56"/>
<path opacity="0.1" d="M726.391 131H99V484.913H726.391V131Z" fill="black"/>
<path d="M419.565 121.176C423.119 121.176 426 118.295 426 114.741C426 111.188 423.119 108.307 419.565 108.307C416.011 108.307 413.13 111.188 413.13 114.741C413.13 118.295 416.011 121.176 419.565 121.176Z" fill="#4ECB96"/>
<path d="M775.007 478.307H713.778V473.895C713.778 473.78 713.755 473.667 713.711 473.56C713.667 473.454 713.603 473.358 713.522 473.277C713.44 473.195 713.344 473.131 713.238 473.087C713.132 473.043 713.018 473.021 712.903 473.021H691.91C691.795 473.021 691.682 473.043 691.575 473.087C691.469 473.131 691.373 473.195 691.292 473.277C691.21 473.358 691.146 473.454 691.102 473.56C691.058 473.667 691.035 473.78 691.035 473.895V478.307H677.915V473.895C677.915 473.78 677.892 473.667 677.848 473.56C677.804 473.454 677.74 473.358 677.659 473.277C677.577 473.195 677.481 473.131 677.375 473.087C677.269 473.043 677.155 473.021 677.04 473.021H656.047C655.932 473.021 655.819 473.043 655.713 473.087C655.606 473.131 655.51 473.195 655.429 473.277C655.348 473.358 655.283 473.454 655.239 473.56C655.195 473.667 655.173 473.78 655.173 473.895V478.307H642.052V473.895C642.052 473.78 642.029 473.667 641.985 473.56C641.941 473.454 641.877 473.358 641.796 473.277C641.715 473.195 641.618 473.131 641.512 473.087C641.406 473.043 641.292 473.021 641.177 473.021H620.184C620.07 473.021 619.956 473.043 619.85 473.087C619.744 473.131 619.647 473.195 619.566 473.277C619.485 473.358 619.42 473.454 619.376 473.56C619.332 473.667 619.31 473.78 619.31 473.895V478.307H606.189V473.895C606.189 473.78 606.167 473.667 606.123 473.56C606.079 473.454 606.014 473.358 605.933 473.277C605.852 473.195 605.755 473.131 605.649 473.087C605.543 473.043 605.429 473.021 605.314 473.021H584.322C584.207 473.021 584.093 473.043 583.987 473.087C583.881 473.131 583.784 473.195 583.703 473.277C583.622 473.358 583.557 473.454 583.513 473.56C583.469 473.667 583.447 473.78 583.447 473.895V478.307H570.326V473.895C570.326 473.78 570.304 473.667 570.26 473.56C570.216 473.454 570.151 473.358 570.07 473.277C569.989 473.195 569.892 473.131 569.786 473.087C569.68 473.043 569.566 473.021 569.452 473.021H548.459C548.344 473.021 548.23 473.043 548.124 473.087C548.018 473.131 547.921 473.195 547.84 473.277C547.759 473.358 547.694 473.454 547.651 473.56C547.607 473.667 547.584 473.78 547.584 473.895V478.307H534.463V473.895C534.463 473.78 534.441 473.667 534.397 473.56C534.353 473.454 534.288 473.358 534.207 473.277C534.126 473.195 534.03 473.131 533.923 473.087C533.817 473.043 533.703 473.021 533.589 473.021H512.596C512.481 473.021 512.367 473.043 512.261 473.087C512.155 473.131 512.058 473.195 511.977 473.277C511.896 473.358 511.832 473.454 511.788 473.56C511.744 473.667 511.721 473.78 511.721 473.895V478.307H498.6V473.895C498.6 473.78 498.578 473.667 498.534 473.56C498.49 473.454 498.426 473.358 498.344 473.277C498.263 473.195 498.167 473.131 498.06 473.087C497.954 473.043 497.841 473.021 497.726 473.021H333.281C333.166 473.021 333.053 473.043 332.947 473.087C332.84 473.131 332.744 473.195 332.663 473.277C332.582 473.358 332.517 473.454 332.473 473.56C332.429 473.667 332.407 473.78 332.407 473.895V478.307H319.286V473.895C319.286 473.78 319.263 473.667 319.219 473.56C319.176 473.454 319.111 473.358 319.03 473.277C318.949 473.195 318.852 473.131 318.746 473.087C318.64 473.043 318.526 473.021 318.411 473.021H297.418C297.304 473.021 297.19 473.043 297.084 473.087C296.978 473.131 296.881 473.195 296.8 473.277C296.719 473.358 296.654 473.454 296.61 473.56C296.566 473.667 296.544 473.78 296.544 473.895V478.307H283.423V473.895C283.423 473.78 283.401 473.667 283.357 473.56C283.313 473.454 283.248 473.358 283.167 473.277C283.086 473.195 282.989 473.131 282.883 473.087C282.777 473.043 282.663 473.021 282.548 473.021H261.556C261.441 473.021 261.327 473.043 261.221 473.087C261.115 473.131 261.018 473.195 260.937 473.277C260.856 473.358 260.791 473.454 260.747 473.56C260.703 473.667 260.681 473.78 260.681 473.895V478.307H247.56V473.895C247.56 473.78 247.538 473.667 247.494 473.56C247.45 473.454 247.385 473.358 247.304 473.277C247.223 473.195 247.126 473.131 247.02 473.087C246.914 473.043 246.8 473.021 246.686 473.021H225.693C225.578 473.021 225.464 473.043 225.358 473.087C225.252 473.131 225.155 473.195 225.074 473.277C224.993 473.358 224.929 473.454 224.885 473.56C224.841 473.667 224.818 473.78 224.818 473.895V478.307H211.697V473.895C211.697 473.78 211.675 473.667 211.631 473.56C211.587 473.454 211.522 473.358 211.441 473.277C211.36 473.195 211.264 473.131 211.157 473.087C211.051 473.043 210.938 473.021 210.823 473.021H189.83C189.715 473.021 189.601 473.043 189.495 473.087C189.389 473.131 189.292 473.195 189.211 473.277C189.13 473.358 189.066 473.454 189.022 473.56C188.978 473.667 188.955 473.78 188.955 473.895V478.307H175.835V473.895C175.835 473.78 175.812 473.667 175.768 473.56C175.724 473.454 175.66 473.358 175.578 473.277C175.497 473.195 175.401 473.131 175.295 473.087C175.188 473.043 175.075 473.021 174.96 473.021H153.967C153.852 473.021 153.738 473.043 153.632 473.087C153.526 473.131 153.43 473.195 153.348 473.277C153.267 473.358 153.203 473.454 153.159 473.56C153.115 473.667 153.092 473.78 153.092 473.895V478.307H139.972V473.895C139.972 473.78 139.949 473.667 139.905 473.56C139.861 473.454 139.797 473.358 139.715 473.277C139.634 473.195 139.538 473.131 139.432 473.087C139.326 473.043 139.212 473.021 139.097 473.021H118.104C117.989 473.021 117.875 473.043 117.769 473.087C117.663 473.131 117.567 473.195 117.485 473.277C117.404 473.358 117.34 473.454 117.296 473.56C117.252 473.667 117.229 473.78 117.229 473.895V478.307H76.9929C71.4252 478.307 66.0856 480.519 62.1487 484.455C58.2118 488.392 56 493.732 56 499.3V508.792C56 514.36 58.2118 519.699 62.1487 523.636C66.0856 527.573 71.4252 529.785 76.9929 529.785H775.007C780.575 529.785 785.914 527.573 789.851 523.636C793.788 519.699 796 514.36 796 508.792V499.3C796 493.732 793.788 488.392 789.851 484.455C785.914 480.519 780.575 478.307 775.007 478.307Z" fill="#3F3D56"/>
<path d="M547.209 171H293.209V438H547.209V171Z" fill="#4ECB96"/>
<path d="M307.871 189.107L298.871 95.1069C298.871 95.1069 280.871 44.1069 307.871 48.1069C334.871 52.1069 318.871 91.1069 318.871 91.1069L333.871 189.107H307.871Z" fill="#FFB9B9"/>
<path d="M438.871 259.107C458.754 259.107 474.871 242.989 474.871 223.107C474.871 203.225 458.754 187.107 438.871 187.107C418.989 187.107 402.871 203.225 402.871 223.107C402.871 242.989 418.989 259.107 438.871 259.107Z" fill="#FFB9B9"/>
<path d="M412.871 239.107C412.871 239.107 410.871 280.107 400.871 283.107C390.871 286.107 362.871 319.107 375.871 329.107C388.871 339.107 463.871 332.107 463.871 332.107L456.871 280.107C456.871 280.107 440.871 269.107 453.871 250.107L412.871 239.107Z" fill="#FFB9B9"/>
<path d="M487.939 440H346.539C347.049 430.95 348.329 418.17 349.969 404.12C350.469 399.86 350.999 395.47 351.549 391.04C356.399 351.99 362.869 309.11 362.869 309.11L364.569 305.18L381.869 265.11L382.049 265.18L404.869 274.11L405.679 277.95C405.679 277.95 403.869 284.5 424.5 286.5C445.131 288.5 451.919 274.78 451.919 274.78L495.869 281.5L501.5 290L495.869 311.11C495.869 311.11 495.669 320.61 495.459 334.14C495.219 349.69 494.959 370.57 494.979 388.46C494.989 397.01 495.059 404.88 495.229 411.16C495.369 416.45 495.579 420.62 495.869 423.11C496.539 428.78 492.979 434.67 487.939 440Z" fill="#3F3D56"/>
<path d="M382.871 270.107L381.871 264.107L353.871 230.107L337.871 173.107L298.871 188.107L326.871 257.107L366.871 308.107L382.871 270.107Z" fill="#3F3D56"/>
<path d="M401.5 228.5C401.5 228.5 403.953 210.395 414.782 207.301C425.611 204.207 427.158 188.737 427.158 188.737C427.158 188.737 455.005 219.677 472.022 221.224C489.039 222.771 473.569 184.096 473.569 184.096C473.569 184.096 463 175 453 173C443 171 425 173 417 173C409 173 399.953 196.013 399.953 196.013L401.5 228.5Z" fill="#2F2E41"/>
<path d="M480 293.165L489.024 286.941C489.024 286.941 504.064 279.827 507.072 304.723C510.079 329.619 519.734 419.773 517.728 418.439C517.728 434.348 516.224 438 516.224 438H484.011L483.008 418.439L484.011 384.746L480 293.165Z" fill="#3F3D56"/>
<path opacity="0.15" d="M483.371 318.607L488 376L486 434.5L483.371 365V318.607Z" fill="black"/>
<path d="M441.9 0H197.9V64H441.9V0Z" fill="#4ECB96"/>
<path d="M1259 529H0V531H1259V529Z" fill="#3F3D56"/>
<path d="M410.9 25.7231H228.9V38.2769H410.9V25.7231Z" fill="white"/>
<path d="M1195.94 458.764C1210.32 474.19 1211.06 496.864 1211.06 496.864C1211.06 496.864 1188.49 494.526 1174.12 479.1C1159.74 463.674 1159 441 1159 441C1159 441 1181.56 443.338 1195.94 458.764Z" fill="#4ECB96"/>
<path d="M1241.2 482.843C1225.77 497.219 1203.1 497.962 1203.1 497.962C1203.1 497.962 1205.44 475.397 1220.86 461.021C1236.29 446.645 1258.96 445.902 1258.96 445.902C1258.96 445.902 1256.62 468.467 1241.2 482.843Z" fill="#4ECB96"/>
<path d="M1237.36 528.628H1180.62C1179.54 528.628 1178.47 528.322 1177.55 527.745C1176.62 527.167 1175.88 526.342 1175.41 525.363L1163.05 499.97C1162.62 499.085 1162.42 498.106 1162.48 497.123C1162.53 496.141 1162.83 495.188 1163.35 494.354C1163.87 493.519 1164.6 492.832 1165.46 492.355C1166.32 491.878 1167.29 491.628 1168.27 491.628H1249.72C1250.7 491.628 1251.67 491.878 1252.53 492.355C1253.39 492.832 1254.12 493.519 1254.64 494.354C1255.16 495.188 1255.46 496.141 1255.51 497.123C1255.56 498.106 1255.37 499.085 1254.94 499.97L1242.58 525.363C1242.11 526.342 1241.36 527.167 1240.44 527.745C1239.52 528.322 1238.45 528.628 1237.36 528.628Z" fill="#3F3D56"/>
</svg>
